\relax 
\providecommand\hyper@newdestlabel[2]{}
\providecommand\HyperFirstAtBeginDocument{\AtBeginDocument}
\HyperFirstAtBeginDocument{\ifx\hyper@anchor\@undefined
\global\let\oldcontentsline\contentsline
\gdef\contentsline#1#2#3#4{\oldcontentsline{#1}{#2}{#3}}
\global\let\oldnewlabel\newlabel
\gdef\newlabel#1#2{\newlabelxx{#1}#2}
\gdef\newlabelxx#1#2#3#4#5#6{\oldnewlabel{#1}{{#2}{#3}}}
\AtEndDocument{\ifx\hyper@anchor\@undefined
\let\contentsline\oldcontentsline
\let\newlabel\oldnewlabel
\fi}
\fi}
\global\let\hyper@last\relax 
\gdef\HyperFirstAtBeginDocument#1{#1}
\providecommand\HyField@AuxAddToFields[1]{}
\providecommand\HyField@AuxAddToCoFields[2]{}
\@writefile{toc}{\contentsline {section}{\numberline {1}Za\IeC {\l }o\IeC {\.z}enia projektowe}{2}{section.1}}
\@writefile{toc}{\contentsline {section}{\numberline {2}Symulator systemu}{2}{section.2}}
\@writefile{toc}{\contentsline {subsection}{\numberline {2.1}Generacja danych przewidziana do transmisji danych}{2}{subsection.2.1}}
\@writefile{toc}{\contentsline {subsection}{\numberline {2.2}Kodowanie wysy\IeC {\l }anych danych w nadajniku}{2}{subsection.2.2}}
\@writefile{toc}{\contentsline {subsection}{\numberline {2.3}Zamiana niekt\IeC {\'o}rych danych w wyniku zak\IeC {\l }\IeC {\'o}ce\IeC {\'n} transmisyjnych}{2}{subsection.2.3}}
\@writefile{toc}{\contentsline {subsection}{\numberline {2.4}Dekodowanie odebranych danych w odbiorniku}{3}{subsection.2.4}}
\@writefile{toc}{\contentsline {section}{\numberline {3}Przyk\IeC {\l }adowe wyniki eksperymentu dla 10 pr\IeC {\'o}bek.}{4}{section.3}}
\@writefile{lof}{\contentsline {figure}{\numberline {1}{\ignorespaces Wyniki eksperymentu dla 10 pr\IeC {\'o}bek z symulatora napisanego w matlabie. Wykresy BSK.}}{4}{figure.1}}
\newlabel{fig:obrazek g}{{1}{4}{Wyniki eksperymentu dla 10 próbek z symulatora napisanego w matlabie. Wykresy BSK}{figure.1}{}}
\@writefile{lof}{\contentsline {figure}{\numberline {2}{\ignorespaces Wyniki eksperymentu dla 10 pr\IeC {\'o}bek z symulatora napisanego w matlabie. Konstelacja BSK.}}{4}{figure.2}}
\newlabel{fig:obrazek k}{{2}{4}{Wyniki eksperymentu dla 10 próbek z symulatora napisanego w matlabie. Konstelacja BSK}{figure.2}{}}
\@writefile{lof}{\contentsline {figure}{\numberline {3}{\ignorespaces Wyniki eksperymentu dla 10 pr\IeC {\'o}bek z symulatora napisanego w matlabie. Wykresy QPSK.}}{5}{figure.3}}
\newlabel{fig:obrazek q}{{3}{5}{Wyniki eksperymentu dla 10 próbek z symulatora napisanego w matlabie. Wykresy QPSK}{figure.3}{}}
\@writefile{lof}{\contentsline {figure}{\numberline {4}{\ignorespaces Wyniki eksperymentu dla 10 pr\IeC {\'o}bek z symulatora napisanego w matlabie. Konstelacja QPSK.}}{5}{figure.4}}
\newlabel{fig:obrazek p}{{4}{5}{Wyniki eksperymentu dla 10 próbek z symulatora napisanego w matlabie. Konstelacja QPSK}{figure.4}{}}
\@writefile{toc}{\contentsline {section}{\numberline {4}Analiza statystyczna.}{6}{section.4}}
\@writefile{toc}{\contentsline {subsection}{\numberline {4.1}Obliczanie BER dla r\IeC {\'o}\IeC {\.z}nych parametr\IeC {\'o}w systemu.}{6}{subsection.4.1}}
\@writefile{lof}{\contentsline {figure}{\numberline {5}{\ignorespaces Wykres BER dla jednakowej ilo\IeC {\'s}ci pr\IeC {\'o}bek BPSK.}}{6}{figure.5}}
\newlabel{fig:obrazek s}{{5}{6}{Wykres BER dla jednakowej ilości próbek BPSK}{figure.5}{}}
\@writefile{lof}{\contentsline {figure}{\numberline {6}{\ignorespaces Wykres BER dla jednakowej ilo\IeC {\'s}ci pr\IeC {\'o}bek QPSK.}}{6}{figure.6}}
\newlabel{fig:obrazek b}{{6}{6}{Wykres BER dla jednakowej ilości próbek QPSK}{figure.6}{}}
\@writefile{toc}{\contentsline {subsection}{\numberline {4.2}Wyznaczanie rozk\IeC {\l }adu b\IeC {\l }\IeC {\k e}d\IeC {\'o}w transmisji w czasie.}{7}{subsection.4.2}}
\@writefile{toc}{\contentsline {subsection}{\numberline {4.3}Wyznaczanie parametr\IeC {\'o}w opisuj\IeC {\k a}cych efektywno\IeC {\'s}\IeC {\'c} transmisji.}{7}{subsection.4.3}}
\@writefile{toc}{\contentsline {section}{\numberline {5}Optymalizacja systemu.}{7}{section.5}}
\@writefile{toc}{\contentsline {subsection}{\numberline {5.1}Rozwi\IeC {\k a}zanie zadania.}{7}{subsection.5.1}}
\@writefile{lof}{\contentsline {figure}{\numberline {7}{\ignorespaces }}{7}{figure.7}}
\newlabel{fig:obrazek o}{{7}{7}{}{figure.7}{}}
\@writefile{toc}{\contentsline {section}{\numberline {6}Wnioski i podsumowanie.}{7}{section.6}}
\@writefile{toc}{\contentsline {section}{\numberline {7}Link do \IeC {\'z}r\IeC {\'o}d\IeC {\l }a program\IeC {\'o}w opracowanych w projekcie.}{8}{section.7}}
\bibcite{}{1}
\@writefile{toc}{\contentsline {section}{\numberline {8}Bibliografia}{9}{section.8}}
